400.	32.24842767295598
404.92206726825265	40.283018867924525
411.4848236259229	41.93396226415095
413.6505332239541	44.168238993710695
417.9163248564397	45.99528301886792
423.65873666940115	47.05188679245283
427.2354388843314	51.66352201257862
429.4011484823626	54.161949685534594
432.1575061525841	51.28930817610063
434.38884331419194	49.64937106918239
440.6890894175554	52.61006289308177
443.70795734208366	55.218553459119505
447.2846595570139	57.90408805031447
454.47087776866283	59.32389937106919
460.0492206726825	60.09433962264151
465.89007383100903	58.77358490566038
468.7776866283839	56.84748427672956
471.5340442986054	58.663522012578625
473.5028712059065	60.534591194968556
475.14356029532405	61.63522012578616
480.0656275635767	60.9748427672956
484.9876948318294	60.864779874213845
487.383100902379	58.77358490566038
492.4036095159967	56.94654088050316
498.11320754716985	58.663522012578625
499.42575881870386	61.30503144654089
505.00410172272353	61.52515723270441
508.6136177194421	62.405660377358494
515.1763740771123	60.9748427672956
520.7547169811321	62.515723270440255
523.9048400328138	64.72798742138366
527.3174733388023	62.405660377358494
531.0582444626743	60.40251572327045
537.4897456931911	61.9433962264151
539.6554552912223	64.05660377358491
545.3650533223954	62.61477987421385
550.2871205906481	63.61635220125786
554.6841673502871	61.371069182389945
559.6718621821165	59.44496855345913
568.9909762100082	61.9433962264151
575.422477440525	58.5864779874214
579.7210828547991	56.17610062893082
589.7621000820345	58.388364779874216
598.8515176374077	61.30503144654089
604.7908121410992	58.96069182389938
610.5332239540608	55.790880503144656
618.2116488925349	58.113207547169814
621.1648892534865	60.75471698113208
627.6948318293684	57.04559748427674
630.3527481542249	54.92138364779874
634.8482362592289	52.62106918238994
644.1673502871206	54.44811320754717
654.1755537325677	53.10534591194969
661.1977030352748	54.92138364779874
667.0713699753896	52.43396226415095
669.9261689909762	50.03459119496856
674.9466776045939	47.53616352201258
681.4109926168991	49.8364779874214
688.4331419196062	52.05974842767296
695.7178014766201	48.779874213836486
700.0164068908941	45.61006289308176
707.8917145200985	42.44025157232705
715.045118949959	43.30974842767296
722.9204265791633	42.05503144654089
739.3929450369155	41.966981132075475
742.9696472518458	39.369496855345915
747.9901558654635	36.199685534591204
754.4216570959803	33.89937106918239
763.0188679245283	34.18553459119497
769.4503691550451	35.91352201257862
774.4708777686628	33.80031446540881
780.9023789991795	30.432389937106922
790.2214930270713	26.305031446540884
797.3748974569319	24.09276729559749
809.5159967186219	25.314465408805034
815.980311730927	24.09276729559749
827.4323215750615	24.577044025157235
836.0295324036096	23.333333333333336
841.771944216571	20.163522012578614
848.9253486464315	16.993710691823903
855.1271534044299	18.050314465408803
860.377358490566	18.050314465408803
868.2526661197703	18.71069182389937
878.2936833470058	17.27987421383648
884.0032813781788	15.838050314465411
891.8785890073831	15.628930817610064
892.6004922067268	13.911949685534593
895.5209187858901	12.470125786163523
904.0525020508613	11.512578616352204
914.0607054963084	11.039308176100631
916.9483182936833	9.784591194968556
921.2469237079573	8.540880503144656
931.2551271534045	8.80503144654088
939.8523379819525	7.385220125786167
949.6308449548811	7.264150943396227
956.8498769483184	6.383647798742139
963.4126333059886	5.723270440251573
968.498769483183	4.215408805031448
974.2083675143562	3.1588050314465432
984.2493847415915	3.345911949685535
990.6808859721083	2.20125786163522
999.8359310910583	1.4308176100628933
