450.	0.839
500.	0.922
550.	1.
600.	1.063
650.	1.123
700.	1.173
750.	1.193
800.	1.162
850.	1.11
900.	1.079
950.	1.086
1000.	1.118
1050.	1.15
1100.	1.19
1150.	1.236
1200.	1.271
1250.	1.296
1300.	1.322
1350.	1.352
1400.	1.376
1450.	1.396
1500.	1.408
1550.	1.412
1600.	1.405
1650.	1.392
1700.	1.374
1750.	1.358
1800.	1.345
1850.	1.338
1900.	1.333
1950.	1.331
2000.	1.333
2050.	1.341
2100.	1.353
2150.	1.365
2200.	1.373
2250.	1.38
2300.	1.385
2350.	1.39
2400.	1.396
2450.	1.4